module github.com/haunt98/update-go-mod

go 1.24

require (
	github.com/bytedance/sonic v1.12.10
	github.com/google/go-github/v69 v69.2.0
	github.com/make-go-great/color-go v0.5.0
	github.com/make-go-great/netrc-go v0.0.2
	github.com/sourcegraph/conc v0.3.0
	github.com/spf13/cast v1.7.1
	github.com/urfave/cli/v2 v2.27.6
	golang.org/x/oauth2 v0.28.0
)

require (
	github.com/bytedance/sonic/loader v0.2.2 // indirect
	github.com/cloudwego/base64x v0.1.5 // indirect
	github.com/cpuguy83/go-md2man/v2 v2.0.5 // indirect
	github.com/fatih/color v1.15.0 // indirect
	github.com/google/go-querystring v1.1.0 // indirect
	github.com/klauspost/cpuid/v2 v2.0.9 // indirect
	github.com/mattn/go-colorable v0.1.13 // indirect
	github.com/mattn/go-isatty v0.0.17 // indirect
	github.com/russross/blackfriday/v2 v2.1.0 // indirect
	github.com/twitchyliquid64/golang-asm v0.15.1 // indirect
	github.com/xrash/smetrics v0.0.0-20240521201337-686a1a2994c1 // indirect
	go.uber.org/atomic v1.7.0 // indirect
	go.uber.org/multierr v1.9.0 // indirect
	golang.org/x/arch v0.0.0-20210923205945-b76863e36670 // indirect
	golang.org/x/sys v0.18.0 // indirect
)
